Chapter 4 Geospatial operations on raster/vector data | Data Visualization and Geospatial Analysis With R
…
# Apply function on cell values for each region
library(tidyverse)

sm_IPCC_list %>% 
  as_tibble() %>% 
  group_by(ID) %>% 
  summarise(mean_SM = mean(SMAP_SM, na.rm =T))

## # A tibble: 41 × 2
##       ID mean_SM
##    <dbl>   <dbl>
##  1     1   0.255
##  2     2   0.384
##  3     3   0.235
##  4     4   0.379
##  5     5   0.238
##  6     6   0.148
##  7     7   0.110
##  8     8   0.336
##  9     9   0.399
## 10    10   0.320
## # ℹ 31 more rows

#~~ Try user defined function
myfun=function (y){return(mean(y, na.rm=TRUE))}    # User defined function for calculating means

sm_IPCC_list %>% 
  as_tibble() %>% 
  group_by(ID) %>% 
  summarise(mean_SM = myfun(SMAP_SM))  

## # A tibble: 41 × 2
##       ID mean_SM
##    <dbl>   <dbl>
##  1     1   0.255
##  2     2   0.384
##  3     3   0.235
##  4     4   0.379
##  5     5   0.238
##  6     6   0.148
##  7     7   0.110
##  8     8   0.336
##  9     9   0.399
## 10    10   0.320
## # ℹ 31 more rows
…
