Chapter 3 Raster and shapefile visualization | Data Visualization and Geospatial Analysis With R
…
# Import the shapefile of global IPCC climate reference regions (only for land) 
IPCC_shp = read_sf("./SampleData-master/CMIP_land/CMIP_land.shp")

# View attribute table of the shapefile
IPCC_shp # Notice the attributes look like a data frame

## Simple feature collection with 41 features and 4 fields
## Geometry type: POLYGON
## Dimension:     XY
## Bounding box:  xmin: -168 ymin: -56 xmax: 180 ymax: 85
## Geodetic CRS:  WGS 84
## # A tibble: 41 × 5
##    V1              V2                V3       V4                        geometry
##    <chr>           <chr>             <chr> <dbl>                   <POLYGON [°]>
##  1 ARCTIC          Greenland/Iceland GIC       1 ((-10 58, -10.43956 58, -10.87…
##  2 NORTH-AMERICA   N.E.Canada        NEC       2 ((-55 50, -55.4386 50, -55.877…
##  3 NORTH-AMERICA   C.North-America   CNA       3 ((-90 50, -90 49.5614, -90 49.…
##  4 NORTH-AMERICA   E.North-America   ENA       4 ((-70 25, -70.43478 25, -70.86…
##  5 NORTH-AMERICA   N.W.North-America NWN       5 ((-105 50, -105.4386 50, -105.…
##  6 NORTH-AMERICA   W.North-America   WNA       6 ((-130 50, -129.5614 50, -129.…
##  7 CENTRAL-AMERICA N.Central-America NCA       7 ((-90 25, -90.37179 24.76923, …
##  8 CENTRAL-AMERICA S.Central-America SCA       8 ((-75 12, -75.28 11.67333, -75…
##  9 CENTRAL-AMERICA Caribbean         CAR       9 ((-75 12, -75.32609 12.28261, …
## 10 SOUTH-AMERICA   N.W.South-America NWS      10 ((-75 12, -74.57143 12, -74.14…
## # ℹ 31 more rows
…
